…
```
## # A tibble: 20,751 × 7
##    yearpublished game_id name                usersrated average .resid avgweight
##            <dbl>   <dbl> <chr>                    <dbl>   <dbl>  <dbl>     <dbl>
##  1          2019  290500 Flip & Fish                 30    9.14   3.33       1  
##  2          2020  260037 Composition                 37    9.12   3.32       1  
##  3          2018  236332 Animator vs Animat…         48    9.06   3.26       1  
##  4          2021  173514 Meeple Quest                45    9.31   3.21       1.5
##  5          2020  281257 Aeolis                      39    9.46   3.06       2  
##  6          2021  304666 Wild Life: The Car…         48    8.81   3.01       1  
##  7          2017  219666 Ciudad de Cartón            36    8.76   2.96       1  
##  8          2020  310846 Urgency                     40    9.15   2.75       2  
##  9          2018  228370 TerroriXico                 70    9.43   2.74       2.5
## 10          2020  288276 Tough Calls: Dysto…         32    8.47   2.66       1  
## # … with 20,741 more rows
```

A positive residual in this case is a game that has a higher than expected average given its complexity. But, we can't just adjust the ratings alone because it skews heavily towards games that have a highly inflated average rating due to a only having a handful of users. 


```
## # A tibble: 20,751 × 9
##    yearpublished game_id name       usersrated average baverage .resid avgweight
##            <dbl>   <dbl> <chr>           <dbl>   <dbl>    <dbl>  <dbl>     <dbl>
##  1          2019  290500 Flip & Fi…         30    9.14     5.52   3.33       1  
##  2          2020  260037 Compositi…         37    9.12     5.52   3.32       1  
##  3          2018  236332 Animator …         48    9.06     5.5    3.26       1  
##  4          2021  173514 Meeple Qu…         45    9.31     5.53   3.21       1.5
##  5          2020  281257 Aeolis             39    9.46     5.53   3.06       2  
##  6          2021  304666 Wild Life…         48    8.81     5.52   3.01       1  
##  7          2017  219666 Ciudad de…         36    8.76     5.51   2.96       1  
##  8          2020  310846 Urgency            40    9.15     5.53   2.75       2  
##  9          2018  228370 TerroriXi…         70    9.43     5.5    2.73       2.5
## 10          2020  288276 Tough Cal…         32    8.47     5.53   2.66       1  
## # … with 20,741 more rows, and 1 more variable: adj_average <dbl>
```
…
