…
```
  
Recommendations


```
## Joining, by = "game_id"
```

```
## # A tibble: 230,018 × 11
## # Groups:   dataset [2]
##    dataset    game_id name   neighbor_game_id neighbor_name   rec_score rec_rank
##    <chr>        <int> <chr>             <int> <chr>               <dbl>    <int>
##  1 info, cat…  174430 Gloom…           291457 Gloomhaven: Ja…      15.1        1
##  2 info, cat…  174430 Gloom…           180263 The 7th Contin…      13.3        2
##  3 info, cat…  174430 Gloom…            96848 Mage Knight Bo…      13.1        3
##  4 info, cat…  174430 Gloom…           269385 The Lord of th…      13.0        4
##  5 info, cat…  174430 Gloom…           169427 Middara: Unint…      12.9        5
##  6 info, cat…  174430 Gloom…           192135 Too Many Bones       12.8        6
##  7 info, cat…  174430 Gloom…           205637 Arkham Horror:…      12.7        7
##  8 info, cat…  174430 Gloom…           155068 Arcadia Quest        12.7        8
##  9 info, cat…  174430 Gloom…           195421 Near and Far         12.5        9
## 10 info, cat…  174430 Gloom…           280794 Etherfields          12.5       10
## # … with 230,008 more rows, and 4 more variables: similarity <dbl>,
## #   dist_rank <int>, rank <int>, baverage <dbl>
```
…
```
## Joining, by = c("neighbor_game_id", "neighbor_name")
```

```
## Joining, by = "game_id"
```

```
## Joining, by = c("game_id", "rank", "baverage")
```

```
## # A tibble: 241,050 × 11
## # Groups:   dataset [2]
##    dataset    game_id name   neighbor_game_id neighbor_name   rec_score rec_rank
##    <chr>        <int> <chr>             <int> <chr>               <dbl>    <int>
##  1 info, cat…  174430 Gloom…           295770 Frosthaven           15.1        1
##  2 info, cat…  174430 Gloom…           291457 Gloomhaven: Ja…      15.1        2
##  3 info, cat…  174430 Gloom…           180263 The 7th Contin…      13.3        3
##  4 info, cat…  174430 Gloom…            96848 Mage Knight Bo…      13.1        4
##  5 info, cat…  174430 Gloom…           269385 The Lord of th…      13.0        5
##  6 info, cat…  174430 Gloom…           169427 Middara: Unint…      12.9        6
##  7 info, cat…  174430 Gloom…           192135 Too Many Bones       12.8        7
##  8 info, cat…  174430 Gloom…           155068 Arcadia Quest        12.7        8
##  9 info, cat…  174430 Gloom…           195421 Near and Far         12.5        9
## 10 info, cat…  174430 Gloom…           280794 Etherfields          12.5       10
## # … with 241,040 more rows, and 4 more variables: similarity <dbl>,
## #   dist_rank <int>, rank <int>, baverage <dbl>
```
…
